<?xml version="1.0" encoding="UTF-8" standalone="no"?>
<!-- Created with Inkscape (http://www.inkscape.org/) -->

<svg
   xmlns:dc="http://purl.org/dc/elements/1.1/"
   xmlns:cc="http://creativecommons.org/ns#"
   xmlns:rdf="http://www.w3.org/1999/02/22-rdf-syntax-ns#"
   xmlns:svg="http://www.w3.org/2000/svg"
   xmlns="http://www.w3.org/2000/svg"
   xmlns:xlink="http://www.w3.org/1999/xlink"
   xmlns:sodipodi="http://sodipodi.sourceforge.net/DTD/sodipodi-0.dtd"
   xmlns:inkscape="http://www.inkscape.org/namespaces/inkscape"
   width="164mm"
   height="54mm"
   id="svg2"
   version="1.1"
   inkscape:version="0.92.1 r15371"
   sodipodi:docname="Ausweis-Original.svg">
  <defs
     id="defs4" />
  <sodipodi:namedview
     id="base"
     pagecolor="#ffffff"
     bordercolor="#666666"
     borderopacity="1.0"
     inkscape:pageopacity="0.0"
     inkscape:pageshadow="2"
     inkscape:zoom="2.6484146"
     inkscape:cx="313.22687"
     inkscape:cy="95.669291"
     inkscape:document-units="px"
     inkscape:current-layer="layer4"
     showgrid="false"
     inkscape:window-width="1920"
     inkscape:window-height="1147"
     inkscape:window-x="1912"
     inkscape:window-y="-8"
     inkscape:window-maximized="1"
     fit-margin-top="0"
     fit-margin-left="0"
     fit-margin-right="0"
     fit-margin-bottom="0"
     units="mm" />
  <metadata
     id="metadata7">
    <rdf:RDF>
      <cc:Work
         rdf:about="">
        <dc:format>image/svg+xml</dc:format>
        <dc:type
           rdf:resource="http://purl.org/dc/dcmitype/StillImage" />
        <dc:title></dc:title>
      </cc:Work>
    </rdf:RDF>
  </metadata>
  <g
     inkscape:groupmode="layer"
     id="layer1"
     inkscape:label="Schnittkante"
     transform="translate(-10.842572,7.8202091)"
     style="display:inline"
     sodipodi:insensitive="true">
    <rect
       style="fill:none;stroke:#000000;stroke-width:0.10666665;stroke-miterlimit:4;stroke-dasharray:0.42666666, 0.21333334, 0.10666667, 0.21333334;stroke-dashoffset:0;stroke-opacity:1"
       id="rect3040"
       width="619.7359"
       height="203.98782"
       x="10.895905"
       y="-7.7668757"
       ry="10.623385" />
  </g>
  <g
     inkscape:groupmode="layer"
     id="layer2"
     inkscape:label="Logo"
     transform="translate(-10.842572,115.83955)"
     style="display:inline"
     sodipodi:insensitive="true">
    <g
       style="display:inline"
       transform="matrix(0.62289178,0,0,0.62289178,23.274196,-114.10819)"
       inkscape:label="Logo"
       id="layer2-0">
      <g
         id="g3769">
        <g
           id="g2989-9"
           transform="matrix(0.6,0,0,0.6,0,38.399817)">
          <path
             inkscape:connector-curvature="0"
             id="rect2984-7"
             d="m 0,0 v 74.666667 h 42.866667 c -0.91944,0 -1.742258,-0.140279 -2.5,-0.4 -0.757757,-0.259722 -1.408916,-0.691666 -1.9,-1.333334 -0.488994,-0.656943 -0.809172,-1.548608 -1,-2.633333 -0.176142,-1.099995 -0.160334,-2.449994 0.06667,-4.1 l 1.7,-12.366667 h -2.1 C 36.133429,54.927238 35.153232,56.049241 34.2,57.2 34.18997,57.24321 34.17715,57.2906 34.16667,57.333333 33.855025,58.603061 33.341039,59.670739 32.6,60.5 27.02965,65.070991 22.206303,63.348221 20.866667,62.766667 19.765406,62.288593 19.272503,62.361444 17.5,60.266667 l -8.5666667,-29.333334 4.6333337,-1.4 2.533333,7.9 c 0.152996,0.480421 0.277521,1.02433 0.433333,1.6 0.151175,0.561168 0.305339,1.07834 0.433334,1.566667 L 17.4,42.333333 l 0.233333,-0.06667 c 0.100256,-0.593088 0.234884,-1.155756 0.433334,-1.7 0.198447,-0.544193 0.464448,-1.073695 0.8,-1.533334 0.34341,-0.478123 0.764374,-0.898228 1.266666,-1.266666 0.502285,-0.368382 1.112421,-0.647659 1.8,-0.866667 1.075109,-0.342378 2.140856,-0.389241 3.2,-0.133333 1.059127,0.255966 2.057308,0.807065 3.033334,1.666666 0.976002,0.859657 1.915898,2.039317 2.766666,3.5 0.863239,1.456752 1.608301,3.199549 2.266667,5.266667 0.667602,2.096272 1.090501,3.997804 1.233333,5.7 0.01934,0.216132 0.02234,0.42393 0.03333,0.633333 C 35.263225,52.631527 36.075281,51.732102 36.9,50.866667 38.308503,49.388624 39.748871,47.973287 41.233333,46.6 L 42.8,43.133333 h 2.4 C 65.266338,26.456679 90.83767,18.412668 113.36667,17.2 122.78049,16.693282 131.66758,17.391415 139.4,19.133333 A 1.0667733,1.0667733 0 1 1 138.93333,21.2 C 113.33674,15.433732 74.132629,21.71989 46.2,45.133333 L 45.733333,48.6 h 5.133334 l -0.733334,5.233333 H 45 L 43.3,66.2 c -0.136628,0.993062 -0.03789,1.726395 0.3,2.2 0.337871,0.473616 0.845052,0.700005 1.5,0.7 0.566759,5e-6 1.108505,-0.08055 1.633333,-0.233333 C 47.27073,68.713894 47.806137,68.529172 48.366667,68.3 l -0.7,5.2 c -0.587837,0.336112 -1.297846,0.619444 -2.133334,0.833333 -0.825019,0.229166 -1.722057,0.333334 -2.666666,0.333334 h 15.566666 c -0.91944,0 -1.742258,-0.140279 -2.5,-0.4 C 55.175577,74.006945 54.557751,73.575001 54.066667,72.933333 53.577673,72.27639 53.224162,71.384725 53.033333,70.3 52.857191,69.200005 52.872999,67.850006 53.1,66.2 l 1.7,-12.366667 h -2.733333 l 0.4,-2.966666 3.5,-2.333334 2.4,-5.4 h 3.666666 L 61.3,48.6 h 5.133333 L 65.7,53.833333 h -5.133333 l -1.7,12.366667 c -0.136629,0.993062 -0.03789,1.726395 0.3,2.2 0.337871,0.473616 0.845051,0.700005 1.5,0.7 0.566759,5e-6 1.108504,-0.08055 1.633333,-0.233333 0.537396,-0.152773 1.106137,-0.337495 1.666667,-0.566667 l -0.733334,5.2 c -0.587836,0.336112 -1.297845,0.619444 -2.133333,0.833333 -0.82502,0.229166 -1.722058,0.333334 -2.666667,0.333334 H 70.3 l -2.266667,-26 H 74.3 l 0.5,14.8 c 0.03561,0.884248 0.0465,1.804873 0,2.766666 C 74.7699,67.179631 74.688577,68.039872 74.566667,68.8 H 74.7 c 0.213886,-0.822179 0.481458,-1.684729 0.833333,-2.6 0.368276,-0.930767 0.755704,-1.849085 1.166667,-2.733333 l 6.766667,-14.8 h 6.3 l -13.3,26 h 11.1 c -0.574517,0 -1.089488,-0.09525 -1.533334,-0.3 -0.443851,-0.204746 -0.796571,-0.52384 -1.066666,-0.933334 -0.268966,-0.41534 -0.458408,-0.940726 -0.533334,-1.566666 -0.069,-0.631786 0.0022,-1.351761 0.166667,-2.2 0.166733,-0.859929 0.39809,-1.623173 0.7,-2.266667 0.301906,-0.643481 0.634549,-1.172949 1.033333,-1.6 0.4047,-0.432883 0.846116,-0.750211 1.333334,-0.966667 0.491995,-0.216436 1.020874,-0.333323 1.566666,-0.333333 0.531417,1e-5 0.979128,0.101109 1.366667,0.3 0.393445,0.193056 0.71022,0.486433 0.933333,0.866667 0.227884,0.380251 0.383087,0.844267 0.433334,1.4 0.05615,0.549896 0.005,1.186319 -0.133334,1.9 l -0.266666,1.3 h -4.9 c -0.06302,0.374396 -0.06053,0.695809 -0.03333,1 0.03311,0.298347 0.116172,0.556073 0.233334,0.766666 0.123075,0.204749 0.263195,0.355521 0.466666,0.466667 0.20825,0.11115 0.474619,0.166669 0.766667,0.166667 0.244162,2e-6 0.478881,-0.0041 0.7,-0.03333 0.227029,-0.03509 0.448317,-0.102314 0.666667,-0.166666 C 89.685004,72.402315 89.880766,72.326933 90.1,72.233333 90.320354,72.133888 90.564385,72.0287 90.8,71.9 l -0.4,2.066667 C 90.18467,74.089515 89.979965,74.212252 89.766667,74.3 89.559277,74.3819 89.326778,74.441501 89.1,74.5 c -0.22679,0.0585 -0.479847,0.109934 -0.733333,0.133333 -0.254632,0.02925 -0.503174,0.03333 -0.8,0.03333 h 5.366666 c -0.190852,0 -0.368276,-0.01508 -0.533333,-0.06667 -0.165061,-0.04642 -0.30954,-0.125013 -0.433333,-0.233333 -0.123796,-0.10832 -0.227788,-0.268274 -0.3,-0.433334 -0.06706,-0.165059 -0.1,-0.334551 -0.1,-0.566666 -10e-7,-0.24243 0.03294,-0.468272 0.1,-0.633334 0.07221,-0.170215 0.176204,-0.296836 0.3,-0.4 C 92.09046,72.230176 92.234939,72.146426 92.4,72.1 c 0.165057,-0.04642 0.342481,-0.06667 0.533333,-0.06667 0.180532,2e-6 0.340096,0.02025 0.5,0.06667 0.165056,0.04642 0.309536,0.130174 0.433334,0.233333 0.123791,0.103168 0.227783,0.229785 0.3,0.4 0.07221,0.165062 0.1,0.390904 0.1,0.633334 -4e-6,0.232115 -0.02779,0.401607 -0.1,0.566666 -0.07222,0.16506 -0.176209,0.325014 -0.3,0.433334 -0.123798,0.10832 -0.268278,0.18691 -0.433334,0.233333 -0.159904,0.05158 -0.319468,0.06667 -0.5,0.06667 H 96.6 L 96.366667,64.833333 H 98.8 l -0.2,5.6 c -0.0089,0.333814 -0.02421,0.70358 -0.06667,1.066667 -0.03574,0.357237 -0.100352,0.679711 -0.166666,0.966667 h 0.06667 c 0.103286,-0.310382 0.24124,-0.654476 0.4,-1 0.165468,-0.351375 0.319295,-0.69952 0.5,-1.033334 l 2.999996,-5.6 h 2.4 l -5.766662,9.833334 H 102.7 c -0.19085,0 -0.40161,-0.01509 -0.56667,-0.06667 -0.16506,-0.04642 -0.30954,-0.125013 -0.43333,-0.233333 -0.1238,-0.10832 -0.19445,-0.268274 -0.26667,-0.433334 -0.067,-0.165059 -0.1,-0.334551 -0.1,-0.566666 0,-0.24243 0.0329,-0.468272 0.1,-0.633334 0.0722,-0.170215 0.14287,-0.296836 0.26667,-0.4 0.12379,-0.103157 0.26827,-0.186907 0.43333,-0.233333 0.16506,-0.04642 0.37582,-0.06667 0.56667,-0.06667 0.18053,2e-6 0.3401,0.02025 0.5,0.06667 0.16506,0.04642 0.30954,0.130174 0.43333,0.233333 0.12379,0.103168 0.22779,0.229785 0.3,0.4 0.0722,0.165062 0.1,0.390904 0.1,0.633334 0,0.232115 -0.0278,0.401607 -0.1,0.566666 -0.0722,0.16506 -0.17621,0.325014 -0.3,0.433334 -0.12379,0.10832 -0.26827,0.18691 -0.43333,0.233333 -0.1599,0.05158 -0.31947,0.06667 -0.5,0.06667 h 7.16667 V 53.333333 h 7.46666 v 21.333334 h 8.53334 V 53.333333 h 7.46666 v 21.333334 h 8.53334 V 53.333333 h 7.46666 v 21.333334 h 8.53334 V 53.333333 h 7.46666 v 21.333334 h 8.53334 V 53.333333 h 7.46666 v 21.333334 h 8.53334 V 53.333333 h 7.46666 v 21.333334 h 16 V 0 Z m 153.6,21.2 c 3.75721,0 6.8,3.042803 6.8,6.8 0,3.757205 -3.04279,6.833333 -6.8,6.833333 -3.75721,0 -6.8,-3.076128 -6.8,-6.833333 0,-3.757197 3.04279,-6.8 6.8,-6.8 z m -43.73333,17.733333 h 87.46666 v 8.533334 H 109.86667 Z M 22.533333,42.7 c -0.274857,0.0044 -0.542679,0.04077 -0.833333,0.133333 -0.637574,0.203079 -1.138046,0.513435 -1.5,0.933334 -0.354099,0.401404 -0.596515,0.907141 -0.7,1.533333 -0.103488,0.626234 -0.0726,1.397104 0.06667,2.266667 0.134613,0.855042 0.343946,1.833588 0.666666,2.933333 l 0.233334,0.7 c 0.375531,1.179157 0.762065,2.218735 1.166666,3.1 0.417092,0.877308 0.858939,1.594971 1.333334,2.133333 0.469745,0.523825 0.981279,0.856414 1.533333,1.033334 0.564538,0.172954 1.191584,0.148335 1.866667,-0.06667 1.137609,-0.362304 1.773649,-1.247505 1.9,-2.666667 0.134188,-1.437673 -0.168366,-3.36469 -0.933337,-5.766663 C 26.568341,46.564727 25.717721,44.855853 24.8,43.833333 24.117595,43.052574 23.357906,42.686923 22.533333,42.7 Z m 66.333334,23.7 c -0.387801,9e-6 -0.743489,0.166564 -1.066667,0.5 -0.318399,0.333452 -0.556659,0.852987 -0.733333,1.566667 h 2.8 c 0.05306,-0.298338 0.07534,-0.581782 0.06667,-0.833334 C 89.924693,67.381795 89.879733,67.181354 89.8,67 89.72139,66.812811 89.618597,66.671972 89.466667,66.566667 89.314723,66.461377 89.096465,66.400009 88.866667,66.4 Z"
             style="fill:#e20a17;fill-opacity:1;stroke:none;stroke-width:1.06666672" />
          <rect
             y="74.666214"
             x="189.86667"
             height="21.333334"
             width="7.4666667"
             id="rect2986-8"
             style="fill:#e20a17;fill-opacity:1;stroke:none;stroke-width:1.06666672" />
          <rect
             style="fill:#e20a17;fill-opacity:1;stroke:none;stroke-width:1.06666672"
             id="rect3782-7"
             width="7.4666667"
             height="21.333334"
             x="173.86667"
             y="74.666214" />
          <rect
             y="74.666214"
             x="157.86667"
             height="21.333334"
             width="7.4666667"
             id="rect3788-7"
             style="fill:#e20a17;fill-opacity:1;stroke:none;stroke-width:1.06666672" />
          <rect
             style="fill:#e20a17;fill-opacity:1;stroke:none;stroke-width:1.06666672"
             id="rect3794-6"
             width="7.4666667"
             height="21.333334"
             x="141.86667"
             y="74.666214" />
          <rect
             y="74.666214"
             x="125.86667"
             height="21.333334"
             width="7.4666667"
             id="rect3800-0"
             style="fill:#e20a17;fill-opacity:1;stroke:none;stroke-width:1.06666672" />
          <rect
             style="fill:#e20a17;fill-opacity:1;stroke:none;stroke-width:1.06666672"
             id="rect3806-6"
             width="7.4666667"
             height="21.333334"
             x="109.86667"
             y="74.666214" />
        </g>
        <rect
           style="fill:#e20a17;fill-opacity:1;fill-rule:evenodd;stroke:#ffffff;stroke-width:1.08944261px;stroke-linecap:butt;stroke-linejoin:miter;stroke-opacity:1"
           id="rect2990"
           width="19.014843"
           height="26.853865"
           x="87.555267"
           y="50.520664"
           ry="4.2875915"
           transform="rotate(-15)" />
        <rect
           ry="4.2875915"
           y="-41.679417"
           x="116.29301"
           height="26.853865"
           width="19.014843"
           id="rect3767"
           style="fill:#ffffff;fill-opacity:1;fill-rule:evenodd;stroke:#e20a17;stroke-width:1.08944261px;stroke-linecap:butt;stroke-linejoin:miter;stroke-opacity:1"
           transform="rotate(30)" />
      </g>
    </g>
    <g
       id="g4339"
       inkscape:label="Logo"
       transform="matrix(0.62289178,0,0,0.62289178,333.19546,-114.10819)"
       style="display:inline">
      <g
         id="g4341">
        <g
           transform="matrix(0.6,0,0,0.6,0,38.399817)"
           id="g4343">
          <path
             style="fill:#e20a17;fill-opacity:1;stroke:none;stroke-width:1.06666672"
             d="m 0,0 v 74.666667 h 42.866667 c -0.91944,0 -1.742258,-0.140279 -2.5,-0.4 -0.757757,-0.259722 -1.408916,-0.691666 -1.9,-1.333334 -0.488994,-0.656943 -0.809172,-1.548608 -1,-2.633333 -0.176142,-1.099995 -0.160334,-2.449994 0.06667,-4.1 l 1.7,-12.366667 h -2.1 C 36.133429,54.927238 35.153232,56.049241 34.2,57.2 34.18997,57.24321 34.17715,57.2906 34.16667,57.333333 33.855025,58.603061 33.341039,59.670739 32.6,60.5 27.02965,65.070991 22.206303,63.348221 20.866667,62.766667 19.765406,62.288593 19.272503,62.361444 17.5,60.266667 l -8.5666667,-29.333334 4.6333337,-1.4 2.533333,7.9 c 0.152996,0.480421 0.277521,1.02433 0.433333,1.6 0.151175,0.561168 0.305339,1.07834 0.433334,1.566667 L 17.4,42.333333 l 0.233333,-0.06667 c 0.100256,-0.593088 0.234884,-1.155756 0.433334,-1.7 0.198447,-0.544193 0.464448,-1.073695 0.8,-1.533334 0.34341,-0.478123 0.764374,-0.898228 1.266666,-1.266666 0.502285,-0.368382 1.112421,-0.647659 1.8,-0.866667 1.075109,-0.342378 2.140856,-0.389241 3.2,-0.133333 1.059127,0.255966 2.057308,0.807065 3.033334,1.666666 0.976002,0.859657 1.915898,2.039317 2.766666,3.5 0.863239,1.456752 1.608301,3.199549 2.266667,5.266667 0.667602,2.096272 1.090501,3.997804 1.233333,5.7 0.01934,0.216132 0.02234,0.42393 0.03333,0.633333 C 35.263225,52.631527 36.075281,51.732102 36.9,50.866667 38.308503,49.388624 39.748871,47.973287 41.233333,46.6 L 42.8,43.133333 h 2.4 C 65.266338,26.456679 90.83767,18.412668 113.36667,17.2 122.78049,16.693282 131.66758,17.391415 139.4,19.133333 A 1.0667733,1.0667733 0 1 1 138.93333,21.2 C 113.33674,15.433732 74.132629,21.71989 46.2,45.133333 L 45.733333,48.6 h 5.133334 l -0.733334,5.233333 H 45 L 43.3,66.2 c -0.136628,0.993062 -0.03789,1.726395 0.3,2.2 0.337871,0.473616 0.845052,0.700005 1.5,0.7 0.566759,5e-6 1.108505,-0.08055 1.633333,-0.233333 C 47.27073,68.713894 47.806137,68.529172 48.366667,68.3 l -0.7,5.2 c -0.587837,0.336112 -1.297846,0.619444 -2.133334,0.833333 -0.825019,0.229166 -1.722057,0.333334 -2.666666,0.333334 h 15.566666 c -0.91944,0 -1.742258,-0.140279 -2.5,-0.4 C 55.175577,74.006945 54.557751,73.575001 54.066667,72.933333 53.577673,72.27639 53.224162,71.384725 53.033333,70.3 52.857191,69.200005 52.872999,67.850006 53.1,66.2 l 1.7,-12.366667 h -2.733333 l 0.4,-2.966666 3.5,-2.333334 2.4,-5.4 h 3.666666 L 61.3,48.6 h 5.133333 L 65.7,53.833333 h -5.133333 l -1.7,12.366667 c -0.136629,0.993062 -0.03789,1.726395 0.3,2.2 0.337871,0.473616 0.845051,0.700005 1.5,0.7 0.566759,5e-6 1.108504,-0.08055 1.633333,-0.233333 0.537396,-0.152773 1.106137,-0.337495 1.666667,-0.566667 l -0.733334,5.2 c -0.587836,0.336112 -1.297845,0.619444 -2.133333,0.833333 -0.82502,0.229166 -1.722058,0.333334 -2.666667,0.333334 H 70.3 l -2.266667,-26 H 74.3 l 0.5,14.8 c 0.03561,0.884248 0.0465,1.804873 0,2.766666 C 74.7699,67.179631 74.688577,68.039872 74.566667,68.8 H 74.7 c 0.213886,-0.822179 0.481458,-1.684729 0.833333,-2.6 0.368276,-0.930767 0.755704,-1.849085 1.166667,-2.733333 l 6.766667,-14.8 h 6.3 l -13.3,26 h 11.1 c -0.574517,0 -1.089488,-0.09525 -1.533334,-0.3 -0.443851,-0.204746 -0.796571,-0.52384 -1.066666,-0.933334 -0.268966,-0.41534 -0.458408,-0.940726 -0.533334,-1.566666 -0.069,-0.631786 0.0022,-1.351761 0.166667,-2.2 0.166733,-0.859929 0.39809,-1.623173 0.7,-2.266667 0.301906,-0.643481 0.634549,-1.172949 1.033333,-1.6 0.4047,-0.432883 0.846116,-0.750211 1.333334,-0.966667 0.491995,-0.216436 1.020874,-0.333323 1.566666,-0.333333 0.531417,1e-5 0.979128,0.101109 1.366667,0.3 0.393445,0.193056 0.71022,0.486433 0.933333,0.866667 0.227884,0.380251 0.383087,0.844267 0.433334,1.4 0.05615,0.549896 0.005,1.186319 -0.133334,1.9 l -0.266666,1.3 h -4.9 c -0.06302,0.374396 -0.06053,0.695809 -0.03333,1 0.03311,0.298347 0.116172,0.556073 0.233334,0.766666 0.123075,0.204749 0.263195,0.355521 0.466666,0.466667 0.20825,0.11115 0.474619,0.166669 0.766667,0.166667 0.244162,2e-6 0.478881,-0.0041 0.7,-0.03333 0.227029,-0.03509 0.448317,-0.102314 0.666667,-0.166666 C 89.685004,72.402315 89.880766,72.326933 90.1,72.233333 90.320354,72.133888 90.564385,72.0287 90.8,71.9 l -0.4,2.066667 C 90.18467,74.089515 89.979965,74.212252 89.766667,74.3 89.559277,74.3819 89.326778,74.441501 89.1,74.5 c -0.22679,0.0585 -0.479847,0.109934 -0.733333,0.133333 -0.254632,0.02925 -0.503174,0.03333 -0.8,0.03333 h 5.366666 c -0.190852,0 -0.368276,-0.01508 -0.533333,-0.06667 -0.165061,-0.04642 -0.30954,-0.125013 -0.433333,-0.233333 -0.123796,-0.10832 -0.227788,-0.268274 -0.3,-0.433334 -0.06706,-0.165059 -0.1,-0.334551 -0.1,-0.566666 -10e-7,-0.24243 0.03294,-0.468272 0.1,-0.633334 0.07221,-0.170215 0.176204,-0.296836 0.3,-0.4 C 92.09046,72.230176 92.234939,72.146426 92.4,72.1 c 0.165057,-0.04642 0.342481,-0.06667 0.533333,-0.06667 0.180532,2e-6 0.340096,0.02025 0.5,0.06667 0.165056,0.04642 0.309536,0.130174 0.433334,0.233333 0.123791,0.103168 0.227783,0.229785 0.3,0.4 0.07221,0.165062 0.1,0.390904 0.1,0.633334 -4e-6,0.232115 -0.02779,0.401607 -0.1,0.566666 -0.07222,0.16506 -0.176209,0.325014 -0.3,0.433334 -0.123798,0.10832 -0.268278,0.18691 -0.433334,0.233333 -0.159904,0.05158 -0.319468,0.06667 -0.5,0.06667 H 96.6 L 96.366667,64.833333 H 98.8 l -0.2,5.6 c -0.0089,0.333814 -0.02421,0.70358 -0.06667,1.066667 -0.03574,0.357237 -0.100352,0.679711 -0.166666,0.966667 h 0.06667 c 0.103286,-0.310382 0.24124,-0.654476 0.4,-1 0.165468,-0.351375 0.319295,-0.69952 0.5,-1.033334 l 2.999996,-5.6 h 2.4 l -5.766662,9.833334 H 102.7 c -0.19085,0 -0.40161,-0.01509 -0.56667,-0.06667 -0.16506,-0.04642 -0.30954,-0.125013 -0.43333,-0.233333 -0.1238,-0.10832 -0.19445,-0.268274 -0.26667,-0.433334 -0.067,-0.165059 -0.1,-0.334551 -0.1,-0.566666 0,-0.24243 0.0329,-0.468272 0.1,-0.633334 0.0722,-0.170215 0.14287,-0.296836 0.26667,-0.4 0.12379,-0.103157 0.26827,-0.186907 0.43333,-0.233333 0.16506,-0.04642 0.37582,-0.06667 0.56667,-0.06667 0.18053,2e-6 0.3401,0.02025 0.5,0.06667 0.16506,0.04642 0.30954,0.130174 0.43333,0.233333 0.12379,0.103168 0.22779,0.229785 0.3,0.4 0.0722,0.165062 0.1,0.390904 0.1,0.633334 0,0.232115 -0.0278,0.401607 -0.1,0.566666 -0.0722,0.16506 -0.17621,0.325014 -0.3,0.433334 -0.12379,0.10832 -0.26827,0.18691 -0.43333,0.233333 -0.1599,0.05158 -0.31947,0.06667 -0.5,0.06667 h 7.16667 V 53.333333 h 7.46666 v 21.333334 h 8.53334 V 53.333333 h 7.46666 v 21.333334 h 8.53334 V 53.333333 h 7.46666 v 21.333334 h 8.53334 V 53.333333 h 7.46666 v 21.333334 h 8.53334 V 53.333333 h 7.46666 v 21.333334 h 8.53334 V 53.333333 h 7.46666 v 21.333334 h 16 V 0 Z m 153.6,21.2 c 3.75721,0 6.8,3.042803 6.8,6.8 0,3.757205 -3.04279,6.833333 -6.8,6.833333 -3.75721,0 -6.8,-3.076128 -6.8,-6.833333 0,-3.757197 3.04279,-6.8 6.8,-6.8 z m -43.73333,17.733333 h 87.46666 v 8.533334 H 109.86667 Z M 22.533333,42.7 c -0.274857,0.0044 -0.542679,0.04077 -0.833333,0.133333 -0.637574,0.203079 -1.138046,0.513435 -1.5,0.933334 -0.354099,0.401404 -0.596515,0.907141 -0.7,1.533333 -0.103488,0.626234 -0.0726,1.397104 0.06667,2.266667 0.134613,0.855042 0.343946,1.833588 0.666666,2.933333 l 0.233334,0.7 c 0.375531,1.179157 0.762065,2.218735 1.166666,3.1 0.417092,0.877308 0.858939,1.594971 1.333334,2.133333 0.469745,0.523825 0.981279,0.856414 1.533333,1.033334 0.564538,0.172954 1.191584,0.148335 1.866667,-0.06667 1.137609,-0.362304 1.773649,-1.247505 1.9,-2.666667 0.134188,-1.437673 -0.168366,-3.36469 -0.933337,-5.766663 C 26.568341,46.564727 25.717721,44.855853 24.8,43.833333 24.117595,43.052574 23.357906,42.686923 22.533333,42.7 Z m 66.333334,23.7 c -0.387801,9e-6 -0.743489,0.166564 -1.066667,0.5 -0.318399,0.333452 -0.556659,0.852987 -0.733333,1.566667 h 2.8 c 0.05306,-0.298338 0.07534,-0.581782 0.06667,-0.833334 C 89.924693,67.381795 89.879733,67.181354 89.8,67 89.72139,66.812811 89.618597,66.671972 89.466667,66.566667 89.314723,66.461377 89.096465,66.400009 88.866667,66.4 Z"
             id="path4345"
             inkscape:connector-curvature="0" />
          <rect
             style="fill:#e20a17;fill-opacity:1;stroke:none;stroke-width:1.06666672"
             id="rect4347"
             width="7.4666667"
             height="21.333334"
             x="189.86667"
             y="74.666214" />
          <rect
             y="74.666214"
             x="173.86667"
             height="21.333334"
             width="7.4666667"
             id="rect4349"
             style="fill:#e20a17;fill-opacity:1;stroke:none;stroke-width:1.06666672" />
          <rect
             style="fill:#e20a17;fill-opacity:1;stroke:none;stroke-width:1.06666672"
             id="rect4351"
             width="7.4666667"
             height="21.333334"
             x="157.86667"
             y="74.666214" />
          <rect
             y="74.666214"
             x="141.86667"
             height="21.333334"
             width="7.4666667"
             id="rect4353"
             style="fill:#e20a17;fill-opacity:1;stroke:none;stroke-width:1.06666672" />
          <rect
             style="fill:#e20a17;fill-opacity:1;stroke:none;stroke-width:1.06666672"
             id="rect4355"
             width="7.4666667"
             height="21.333334"
             x="125.86667"
             y="74.666214" />
          <rect
             y="74.666214"
             x="109.86667"
             height="21.333334"
             width="7.4666667"
             id="rect4357"
             style="fill:#e20a17;fill-opacity:1;stroke:none;stroke-width:1.06666672" />
        </g>
        <rect
           transform="rotate(-15)"
           ry="4.2875915"
           y="50.520664"
           x="87.555267"
           height="26.853865"
           width="19.014843"
           id="rect4359"
           style="fill:#e20a17;fill-opacity:1;fill-rule:evenodd;stroke:#ffffff;stroke-width:1.08944261px;stroke-linecap:butt;stroke-linejoin:miter;stroke-opacity:1" />
        <rect
           transform="rotate(30)"
           style="fill:#ffffff;fill-opacity:1;fill-rule:evenodd;stroke:#e20a17;stroke-width:1.08944261px;stroke-linecap:butt;stroke-linejoin:miter;stroke-opacity:1"
           id="rect4361"
           width="19.014843"
           height="26.853865"
           x="116.29301"
           y="-41.679417"
           ry="4.2875915" />
      </g>
    </g>
  </g>
  <g
     inkscape:groupmode="layer"
     id="layer4"
     inkscape:label="Beschriftung"
     transform="translate(-10.842572,7.8202091)"
     style="display:inline"
     sodipodi:insensitive="true">
    <text
       xml:space="preserve"
       style="font-style:normal;font-variant:normal;font-weight:bold;font-stretch:normal;font-size:12.80000019px;line-height:0%;font-family:'Droid Sans';-inkscape-font-specification:'Droid Sans, Bold';text-align:start;letter-spacing:0px;word-spacing:0px;writing-mode:lr-tb;text-anchor:start;display:inline;fill:#000000;fill-opacity:1;stroke:none;stroke-width:1.06666672"
       x="114.69887"
       y="30.035854"
       id="text2995"><tspan
         sodipodi:role="line"
         id="tspan2997"
         x="114.69887"
         y="30.035854"
         style="font-size:16px;line-height:1.25;stroke-width:1.06666672">Verbandsschiedsrichterin</tspan></text>
    <path
       style="display:inline;fill:none;stroke:#000000;stroke-width:0.21333334;stroke-linecap:butt;stroke-linejoin:miter;stroke-miterlimit:4;stroke-dasharray:none;stroke-opacity:1"
       d="M 33.067648,173.79571 H 196.76121"
       id="path3053"
       inkscape:connector-curvature="0" />
    <text
       xml:space="preserve"
       style="font-style:normal;font-variant:normal;font-weight:normal;font-stretch:normal;font-size:12.80000019px;line-height:0%;font-family:'Droid Sans';-inkscape-font-specification:'Droid Sans';text-align:center;letter-spacing:0px;word-spacing:0px;writing-mode:lr-tb;text-anchor:middle;display:inline;fill:#000000;fill-opacity:1;stroke:none;stroke-width:1.06666672"
       x="115.17381"
       y="181.00435"
       id="text3049"><tspan
         sodipodi:role="line"
         id="tspan3051"
         x="115.17381"
         y="181.00435"
         style="font-size:6.4000001px;line-height:1.25;stroke-width:1.06666672">Verbandsschiedsrichterobmann</tspan></text>
    <text
       id="text3925"
       y="108.11657"
       x="424.62015"
       style="font-style:normal;font-variant:normal;font-weight:normal;font-stretch:normal;font-size:12.80000019px;line-height:0%;font-family:'Droid Sans';-inkscape-font-specification:'Droid Sans';text-align:start;letter-spacing:0px;word-spacing:0px;writing-mode:lr-tb;text-anchor:start;display:inline;fill:#000000;fill-opacity:1;stroke:none;stroke-width:1.06666672"
       xml:space="preserve"><tspan
         y="108.11657"
         x="424.62015"
         id="tspan3927"
         sodipodi:role="line"
         style="font-size:10.66666698px;line-height:1.25;stroke-width:1.06666672">Die VSR-Lizenz ist gültig bis:</tspan></text>
    <text
       id="text4363"
       y="30.035854"
       x="424.62015"
       style="font-style:normal;font-variant:normal;font-weight:bold;font-stretch:normal;font-size:12.80000019px;line-height:0%;font-family:'Droid Sans';-inkscape-font-specification:'Droid Sans, Bold';text-align:start;letter-spacing:0px;word-spacing:0px;writing-mode:lr-tb;text-anchor:start;display:inline;fill:#000000;fill-opacity:1;stroke:none;stroke-width:1.06666672"
       xml:space="preserve"><tspan
         y="30.035854"
         x="424.62015"
         id="tspan4365"
         sodipodi:role="line"
         style="font-size:16px;line-height:1.25;stroke-width:1.06666672">Verbandsschiedsrichterin</tspan></text>
  </g>
  <g
     inkscape:groupmode="layer"
     id="layer3"
     inkscape:label="Foto"
     transform="translate(-10.842572,7.8202091)">
    <image
       sodipodi:absref="D:\working\git\open-tt\refereemanager-templates\BeTTV\Ausweise\../../../../../rani/schiri/Schiribilder/kleinod_ekkart.jpg"
       xlink:href="../../../../../rani/schiri/Schiribilder/kleinod_ekkart.jpg"
       width="90.666664"
       height="108.8"
       preserveAspectRatio="none"
       style="image-rendering:optimizeQuality"
       id="image3524"
       x="217.66553"
       y="72.26683" />
  </g>
  <g
     inkscape:groupmode="layer"
     id="layer5"
     inkscape:label="Schiridaten"
     transform="translate(-10.842572,7.8202091)">
    <text
       xml:space="preserve"
       style="font-style:normal;font-variant:normal;font-weight:bold;font-stretch:normal;font-size:12.80000019px;line-height:0%;font-family:'Droid Sans';-inkscape-font-specification:'Droid Sans Bold';text-align:end;letter-spacing:0px;word-spacing:0px;writing-mode:lr-tb;text-anchor:end;display:inline;fill:#000000;fill-opacity:1;stroke:none;stroke-width:1.06666672"
       x="107.07742"
       y="94.423851"
       id="text2995-7"><tspan
         sodipodi:role="line"
         id="tspan2997-2"
         x="107.07742"
         y="94.423851"
         style="font-size:10.66666698px;line-height:1.25;stroke-width:1.06666672">Lizenz</tspan><tspan
         sodipodi:role="line"
         x="107.07742"
         y="107.75719"
         id="tspan4307"
         style="font-size:10.66666698px;line-height:1.25;stroke-width:1.06666672">erteilt am</tspan></text>
    <rect
       style="display:inline;fill:none;fill-opacity:1;stroke:none;stroke-width:1.06666672;stroke-opacity:1"
       id="rect4443"
       width="193.63307"
       height="32.992355"
       x="114.69913"
       y="45.724712" />
    <text
       id="VSR-since"
       y="107.74678"
       x="113.77178"
       style="font-style:normal;font-variant:normal;font-weight:normal;font-stretch:normal;font-size:12.80000019px;line-height:0%;font-family:'Droid Sans';-inkscape-font-specification:'Droid Sans';text-align:start;letter-spacing:0px;word-spacing:0px;writing-mode:lr-tb;text-anchor:start;fill:#000000;fill-opacity:1;stroke:none;stroke-width:1.06666672"
       xml:space="preserve"><tspan
         y="107.74678"
         x="113.77178"
         id="tspan3034"
         sodipodi:role="line"
         style="font-size:10.66666698px;line-height:1.25;stroke-width:1.06666672">12.12.2012</tspan></text>
    <flowRoot
       xml:space="preserve"
       style="font-style:normal;font-variant:normal;font-weight:bold;font-stretch:normal;font-size:12.80000019px;line-height:0.01%;font-family:'Droid Sans';-inkscape-font-specification:'Droid Sans Bold';text-align:start;letter-spacing:0px;word-spacing:0px;writing-mode:lr-tb;text-anchor:start;display:inline;fill:#000000;fill-opacity:1;stroke:none;stroke-width:1.06666672"
       id="VSR-Name-Front"><flowRegion
         id="flowRegion4447"
         style="stroke-width:1.06666672"><use
           x="0"
           y="0"
           xlink:href="#rect4443"
           id="use4449"
           width="100%"
           height="100%"
           style="stroke-width:1.06666672" /></flowRegion><flowPara
         id="flowPara4451"
         style="font-size:13.86666679px;line-height:1.25;stroke-width:1.06666672">Ekkart Kleinod</flowPara></flowRoot>    <rect
       y="45.724712"
       x="424.62042"
       height="32.992355"
       width="193.63307"
       id="rect3393"
       style="display:inline;fill:none;fill-opacity:1;stroke:none;stroke-width:1.06666672;stroke-opacity:1" />
    <flowRoot
       id="VSR-Name-Back"
       style="font-style:normal;font-variant:normal;font-weight:bold;font-stretch:normal;font-size:12.80000019px;line-height:0.01%;font-family:'Droid Sans';-inkscape-font-specification:'Droid Sans Bold';text-align:start;letter-spacing:0px;word-spacing:0px;writing-mode:lr-tb;text-anchor:start;display:inline;fill:#000000;fill-opacity:1;stroke:none;stroke-width:1.06666672"
       xml:space="preserve"><flowRegion
         id="flowRegion3397"
         style="stroke-width:1.06666672"><use
           height="100%"
           width="100%"
           id="use3399"
           xlink:href="#rect4443"
           y="0"
           x="0"
           style="stroke-width:1.06666672" /></flowRegion><flowPara
         id="flowPara3401"
         style="font-size:13.86666679px;line-height:1.25;stroke-width:1.06666672">Ekkart Kleinod</flowPara></flowRoot>  </g>
</svg>
